<?xml version="1.0" encoding="utf-8"?>
<svg viewBox="0 0 500 500" xmlns="http://www.w3.org/2000/svg">
  <path d="M 92.757 7.824 C 76.613 7.824 63.403 21.245 63.403 37.65 L 63.403 455.224 C 63.403 471.627 76.613 485.049 92.757 485.049 L 386.283 485.049 C 402.427 485.049 415.637 471.627 415.637 455.224 L 415.637 127.13 L 298.225 7.824 L 92.757 7.824 Z" fill="#E2E5E7" style=""/>
  <path d="M 327.579 127.13 L 415.637 127.13 L 298.225 7.824 L 298.225 97.303 C 298.225 113.709 311.434 127.13 327.579 127.13 Z" fill="#B0B7BD" style=""/>
  <path d="M 415.637 216.61 L 327.579 127.13 L 415.637 127.13 L 415.637 216.61 Z" fill="#CAD1D8" style=""/>
  <path d="M 356.931 395.569 C 356.931 403.771 350.328 410.483 342.254 410.483 L 19.375 410.483 C 11.303 410.483 4.7 403.771 4.7 395.569 L 4.7 246.438 C 4.7 238.234 11.303 231.524 19.375 231.524 L 342.254 231.524 C 350.328 231.524 356.931 238.234 356.931 246.438 L 356.931 395.569 Z" fill="#50BEE8" style=""/>
  <path d="M 342.254 410.483 L 63.403 410.483 L 63.403 425.397 L 342.254 425.397 C 350.328 425.397 356.931 418.686 356.931 410.483 L 356.931 395.569 C 356.931 403.771 350.328 410.483 342.254 410.483 Z" fill="#CAD1D8" style=""/>
  <text style="fill: rgb(255, 255, 255); font-family: Arial, sans-serif; font-weight: 700; white-space: pre; font-size: 15px;" x="174.449" y="135.543" transform="matrix(7.574891, 0, 0, 7.697186, -1261.441425, -689.51118)">GIF</text>
</svg>